{
    "services": [
        {
            "id": "SerenataEnBogota",
            "serviceName": "Serenata en Bogotá",
            "serviceDescription": "Tu elección perfecta para llevar la magia de la música a esos momentos especiales en Bogotá. Con nuestra serenata única y encantadora, transformamos cualquier ocasión en un recuerdo inolvidable. Desde declaraciones de amor hasta celebraciones especiales, nuestro repertorio tradicional y talentoso cautiva corazones. ¡Haz que tu momento sea excepcional con la serenata perfecta de la Tuna de la EAN!",
            "serviceImgs": [
                {
                    "url": "serenataBogota.webp",
                    "active": true
                },
                {
                    "url": "serenataBogota2.webp",
                    "active": false
                },
                {
                    "url": "serenataBogota3.webp",
                    "active": false
                }
            ],
            "payed": true,
            "whatsappinfo": "https://wa.me/573026544545?text=Hola,%20estoy%20interesado%20en%20contratar%20una%20serenata%20en%20Bogot%C3%A1%20con%20la%20Tuna%20de%20la%20EAN.%20%C2%BFPodr%C3%ADan%20darme%20m%C3%A1s%20informaci%C3%B3n%3F",
            "servicePrice": "$800.000"
        },
        {
            "id": "SerenatafueradeBogota",
            "serviceName": "Serenata fuera de Bogotá",
            "serviceDescription": "Llevamos la magia de la serenata a cada rincón de Colombia! Como la Tuna de la EAN, nos enorgullece ofrecer nuestro servicio excepcional de serenatas más allá de Bogotá. Desde las ciudades más grandes hasta los lugares más pintorescos, llevamos melodías emotivas y armonías encantadoras a tu evento especial. Celebra el amor, la amistad o cualquier ocasión significativa con la serenata inolvidable de la Tuna de la EAN, donde la música encuentra su hogar en cada corazón colombiano.",
            "serviceImgs": [
                {
                    "url": "serenataOutsideCity.webp",
                    "active": true
                },
                {
                    "url": "serenataOutsideCity2.webp",
                    "active": false
                },
                {
                    "url": "serenataOutsideCity3.webp",
                    "active": false
                }
            ],
            "payed": true,
            "whatsappinfo": "https://wa.me/573026544545?text=Hola,%20me%20gustar%C3%ADa%20contratar%20una%20serenata%20fuera%20de%20Bogot%C3%A1%20con%20la%20Tuna%20de%20la%20EAN.%20%C2%BFPodr%C3%ADan%20brindarme%20m%C3%A1s%20detalles%20sobre%20precios%20y%20disponibilidad%3F",
            "servicePrice": "$1'000.000 mas transporte y viáticos"
        },
        {
            "id": "EventosCorporativos",
            "serviceName": "Eventos Corporativos",
            "serviceDescription": "La Tuna de la EAN redefine la elegancia musical en eventos corporativos. Con un repertorio sofisticado y cautivador, creamos una atmósfera única que realza la experiencia de tu evento. Desde cenas de gala hasta lanzamientos de productos, nuestra serenata añade un toque de distinción y creatividad. Eleva la calidad de tu evento corporativo con la excelencia musical de la Tuna de la EAN.",
            "serviceImgs": [
                {
                    "url": "eventoCoorporativo.webp",
                    "active": true
                },
                {
                    "url": "eventoCoorporativo2.webp",
                    "active": false
                },
                {
                    "url": "eventoCoorporativo3.webp",
                    "active": false
                }
            ],
            "payed": true,
            "whatsappinfo": "https://wa.me/573026544545?text=Hola,%20estoy%20organizando%20un%20evento%20corporativo%20y%20me%20interesa%20contar%20con%20la%20Tuna%20de%20la%20EAN.%20%C2%BFPodr%C3%ADan%20proporcionarme%20informaci%C3%B3n%20al%20respecto%3F",
            "servicePrice": "$1'000.000"
        },
        {
            "id": "EventosSinAnimoDeLucro",
            "serviceName": "Eventos sin animo de lucro",
            "serviceDescription": "La Tuna de la EAN se enorgullece de apoyar eventos sin ánimo de lucro con nuestro toque musical lleno de corazón. Con una serenata emotiva y esperanzadora, creamos un ambiente especial para eventos beneficiosos y causas sociales. Desde galas de recaudación de fondos hasta eventos comunitarios, nuestra música se convierte en la banda sonora solidaria que impulsa la inspiración y la conexión.",
            "serviceImgs": [
                {
                    "url": "sinAnimo.webp",
                    "active": true
                }
            ],
            "payed": false,
            "whatsappinfo": "https://wa.me/573026544545?text=Hola,%20estoy%20coordinando%20un%20evento%20sin%20%C3%A1nimo%20de%20lucro%20y%20me%20gustar%C3%ADa%20saber%20si%20la%20Tuna%20de%20la%20EAN%20podr%C3%ADa%20participar.%20%C2%BFPodr%C3%ADan%20darme%20m%C3%A1s%20informaci%C3%B3n%3F",
            "servicePrice": "A convenir"
        },
        {
            "id": "FestivalesYConvocatorias",
            "serviceName": "Festivales y convocatorias",
            "serviceDescription": "Imagina un festival o convocatoria donde la magia de la Tuna de la EAN se convierte en la pieza central de la inspiración. Somos la esencia musical que transformará tu evento en una experiencia extraordinaria. Cada nota que tocamos lleva consigo la pasión, la creatividad y la emoción que solo la Tuna de la EAN puede ofrecer. Invítanos a ser parte de tu celebración, y juntos crearemos momentos inolvidables.",
            "serviceImgs": [
                {
                    "url": "festivales.webp",
                    "active": true
                },
                {
                    "url": "festivales1.webp",
                    "active": false
                },
                {
                    "url": "festivales2.webp",
                    "active": false
                },
                {
                    "url": "festivales3.webp",
                    "active": false
                }
            ],
            "payed": false,
            "whatsappinfo": "https://wa.me/573026544545?text=Hola,%20me%20gustar%C3%ADa%20invitar%20a%20la%20Tuna%20de%20la%20EAN%20a%20participar%20en%20un%20festival%20o%20convocatoria.%20%C2%BFPodr%C3%ADan%20brindarme%20m%C3%A1s%20detalles%3F",
            "servicePrice": "A convenir"
        },
        {
            "id": "NovenasNavideñas",
            "serviceName": "Novenas Navideñas",
            "serviceDescription": "La Tuna de la EAN trae la magia navideña a tus novenas con melodías llenas de alegría y esperanza. Celebra la temporada con nosotros, creando un ambiente cálido y festivo que ilumina cada momento. Deja que la Tuna de la EAN sea la banda sonora que realza la esencia navideña en cada reunión, convirtiendo tus novenas en momentos memorables llenos de música y espíritu festivo.",
            "serviceImgs": [
                {
                    "url": "novenas.webp",
                    "active": true
                }
            ],
            "payed": true,
            "whatsappinfo": "https://wa.me/573026544545?text=Hola,%20estoy%20interesado%20en%20contratar%20a%20la%20Tuna%20de%20la%20EAN%20para%20novenas%20navide%C3%B1as.%20%C2%BFPodr%C3%ADan%20darme%20m%C3%A1s%20informaci%C3%B3n%20sobre%20el%20servicio%3F",
            "servicePrice": "$650.000"
        }
    ]
}