<?xml version="1.0" encoding="UTF-8"?>
<!DOCTYPE svg PUBLIC "-//W3C//DTD SVG 1.1//EN" "http://www.w3.org/Graphics/SVG/1.1/DTD/svg11.dtd">
<svg xmlns="http://www.w3.org/2000/svg" version="1.1" width="988px" height="980px" style="shape-rendering:geometricPrecision; text-rendering:geometricPrecision; image-rendering:optimizeQuality; fill-rule:evenodd; clip-rule:evenodd" xmlns:xlink="http://www.w3.org/1999/xlink">
<g><path style="opacity:0.965" fill="#fefffe" d="M 219.5,41.5 C 221.5,41.5 223.5,41.5 225.5,41.5C 226.987,48.7686 227.487,56.102 227,63.5C 224.236,76.0131 221.236,88.3465 218,100.5C 238.349,88.4193 260.183,85.086 283.5,90.5C 283.66,92.1992 283.494,93.8659 283,95.5C 273.078,117.368 256.412,131.035 233,136.5C 224.093,137.995 215.26,137.661 206.5,135.5C 207.167,134.833 207.833,134.167 208.5,133.5C 206.521,131.736 206.188,129.736 207.5,127.5C 208.167,128.5 208.833,129.5 209.5,130.5C 209.833,130.333 210.167,130.167 210.5,130C 208.788,121.776 206.454,121.943 203.5,130.5C 202.833,129.833 202.167,129.167 201.5,128.5C 193.462,136.036 185.462,143.869 177.5,152C 175.975,153.009 174.308,153.509 172.5,153.5C 172.211,150.351 172.711,147.351 174,144.5C 178.441,137.396 183.608,130.896 189.5,125C 188.863,123.287 187.863,123.121 186.5,124.5C 185.459,122.009 184.626,122.009 184,124.5C 181.766,123.295 180.099,123.961 179,126.5C 177.274,124.772 175.941,122.772 175,120.5C 169.019,97.2512 174.186,77.0846 190.5,60C 191.448,59.5172 192.448,59.3505 193.5,59.5C 193.281,58.325 193.614,57.325 194.5,56.5C 197.934,54.8946 200.934,52.728 203.5,50C 209.167,47.7546 214.501,44.9212 219.5,41.5 Z M 190.5,120.5 C 192.465,120.948 192.798,121.948 191.5,123.5C 190.614,122.675 190.281,121.675 190.5,120.5 Z"/></g>
<g><path style="opacity:0.965" fill="#fefffe" d="M 746.5,41.5 C 751.134,41.4796 755.467,42.6462 759.5,45C 789.57,60.307 801.737,84.807 796,118.5C 794.392,122.354 791.726,123.354 788,121.5C 784.997,124.253 782.33,123.92 780,120.5C 779.5,120.833 779,121.167 778.5,121.5C 787.117,130.082 794.117,139.749 799.5,150.5C 798.904,153.246 797.237,154.08 794.5,153C 789.235,148.242 784.568,143.075 780.5,137.5C 776.957,137.128 774.79,135.128 774,131.5C 770.298,128.968 766.465,126.635 762.5,124.5C 760.186,125.123 760.519,125.456 763.5,125.5C 763.5,126.833 763.5,128.167 763.5,129.5C 764.5,129.5 765.5,129.5 766.5,129.5C 766.219,131.963 765.219,134.13 763.5,136C 740.876,140.286 721.542,134.453 705.5,118.5C 704.675,117.614 703.675,117.281 702.5,117.5C 702.719,116.325 702.386,115.325 701.5,114.5C 697.196,110.542 693.363,106.209 690,101.5C 687.528,97.8673 687.028,94.034 688.5,90C 712.391,85.0768 734.391,88.5768 754.5,100.5C 747.357,83.9528 743.857,66.6195 744,48.5C 744.153,45.8494 744.987,43.5161 746.5,41.5 Z"/></g>
<g><path style="opacity:0.967" fill="#fefffe" d="M 129.5,207.5 C 128.504,207.414 127.671,207.748 127,208.5C 125.562,209.9 124.729,211.567 124.5,213.5C 122.304,213.435 120.304,212.768 118.5,211.5C 100.563,172.981 108.23,140.814 141.5,115C 144.465,112.67 147.632,112.17 151,113.5C 154.594,122.874 156.761,132.541 157.5,142.5C 157.171,154.266 156.338,165.933 155,177.5C 175.397,155.767 200.564,146.434 230.5,149.5C 230.657,150.873 230.49,152.207 230,153.5C 221.87,166.131 213.537,178.465 205,190.5C 192.885,203.607 178.218,212.607 161,217.5C 159.204,216.233 157.371,216.233 155.5,217.5C 154.167,216.833 152.833,216.167 151.5,215.5C 152.448,213.033 152.448,210.366 151.5,207.5C 155.311,207.404 155.311,206.738 151.5,205.5C 153.88,202.813 155.38,199.813 156,196.5C 151.06,200.821 146.894,205.821 143.5,211.5C 138.439,222.622 133.106,233.622 127.5,244.5C 125.599,245.231 123.599,245.231 121.5,244.5C 123.605,233.181 126.938,222.181 131.5,211.5C 130.775,210.133 130.108,208.8 129.5,207.5 Z M 158.5,192.5 C 160.76,193.238 160.927,194.238 159,195.5C 158.517,194.552 158.351,193.552 158.5,192.5 Z M 129.5,207.5 C 129.821,205.952 130.821,205.285 132.5,205.5C 132.649,206.552 132.483,207.552 132,208.5C 131.329,207.748 130.496,207.414 129.5,207.5 Z"/></g>
<g><path style="opacity:0.969" fill="#fefffe" d="M 821.5,202.5 C 821.887,205.254 822.221,207.754 822.5,210C 820.774,211.53 818.774,212.53 816.5,213C 824.111,214.63 823.777,216.13 815.5,217.5C 810.73,216.928 806.064,215.928 801.5,214.5C 795.113,211.427 788.779,208.261 782.5,205C 779.824,203.258 777.491,201.092 775.5,198.5C 774.675,197.614 773.675,197.281 772.5,197.5C 772.719,196.325 772.386,195.325 771.5,194.5C 767.113,190.948 763.279,186.948 760,182.5C 754.98,174.713 750.146,166.713 745.5,158.5C 744.226,156.682 742.726,155.015 741,153.5C 740.135,151.112 740.968,149.612 743.5,149C 773.068,147.728 797.902,157.561 818,178.5C 813.304,160.013 812.97,141.346 817,122.5C 817.875,119.372 819.042,116.372 820.5,113.5C 822.768,112.456 825.101,112.289 827.5,113C 837.037,120.87 845.537,129.703 853,139.5C 859.653,150.761 862.486,162.928 861.5,176C 861.294,183.58 860.46,191.08 859,198.5C 857.361,203.112 855.194,207.446 852.5,211.5C 849.612,209.889 846.612,208.556 843.5,207.5C 843.833,204.5 842.5,203.167 839.5,203.5C 839.5,202.5 839.5,201.5 839.5,200.5C 838.448,200.351 837.448,200.517 836.5,201C 840.898,212.033 845.065,223.199 849,234.5C 849.667,237.167 849.667,239.833 849,242.5C 847.333,243.833 845.667,243.833 844,242.5C 837.792,229.602 831.292,216.935 824.5,204.5C 823.643,203.575 822.643,202.908 821.5,202.5 Z M 814.5,193.5 C 816.337,193.639 816.67,194.306 815.5,195.5C 814.702,195.043 814.369,194.376 814.5,193.5 Z M 821.5,202.5 C 820.292,201.766 818.959,201.433 817.5,201.5C 817.281,200.325 817.614,199.325 818.5,198.5C 820.55,199.077 821.55,200.41 821.5,202.5 Z"/></g>
<g><path style="opacity:1" fill="#fefffe" d="M 342.5,173.5 C 363.167,173.5 383.833,173.5 404.5,173.5C 404.5,177.833 404.5,182.167 404.5,186.5C 396.5,186.5 388.5,186.5 380.5,186.5C 380.5,206.5 380.5,226.5 380.5,246.5C 375.833,246.5 371.167,246.5 366.5,246.5C 366.5,226.5 366.5,206.5 366.5,186.5C 358.5,186.5 350.5,186.5 342.5,186.5C 342.5,182.167 342.5,177.833 342.5,173.5 Z"/></g>
<g><path style="opacity:0.974" fill="#fefffe" d="M 417.5,173.5 C 422.167,173.5 426.833,173.5 431.5,173.5C 431.167,191.512 431.5,209.512 432.5,227.5C 434.361,228.528 435.695,230.028 436.5,232C 447.031,236.643 456.197,234.809 464,226.5C 464.5,208.836 464.667,191.17 464.5,173.5C 469.167,173.5 473.833,173.5 478.5,173.5C 478.667,193.836 478.5,214.169 478,234.5C 466.677,246.958 452.844,250.958 436.5,246.5C 428.603,245.092 422.436,241.092 418,234.5C 417.5,214.169 417.333,193.836 417.5,173.5 Z"/></g>
<g><path style="opacity:0.98" fill="#fefffe" d="M 489.5,173.5 C 495.509,173.334 501.509,173.501 507.5,174C 517.017,190.025 527.184,205.525 538,220.5C 538.5,204.837 538.667,189.17 538.5,173.5C 543.167,173.5 547.833,173.5 552.5,173.5C 552.5,197.5 552.5,221.5 552.5,245.5C 546.907,245.807 541.407,245.473 536,244.5C 534.5,241.5 533,238.5 531.5,235.5C 522.705,221.89 513.538,208.557 504,195.5C 503.5,212.163 503.333,228.83 503.5,245.5C 498.833,245.5 494.167,245.5 489.5,245.5C 489.5,221.5 489.5,197.5 489.5,173.5 Z"/></g>
<g><path style="opacity:0.956" fill="#fefffe" d="M 586.5,173.5 C 593.532,173.17 600.532,173.503 607.5,174.5C 617.518,197.901 626.518,221.568 634.5,245.5C 629.167,245.5 623.833,245.5 618.5,245.5C 617.677,240.777 616.677,236.111 615.5,231.5C 603.531,230.584 591.531,230.251 579.5,230.5C 578.167,235.5 576.833,240.5 575.5,245.5C 570.5,245.5 565.5,245.5 560.5,245.5C 560.34,243.801 560.506,242.134 561,240.5C 567.248,225.861 573.248,211.195 579,196.5C 580.934,188.635 583.434,180.969 586.5,173.5 Z M 596.5,187.5 C 602.143,196.794 606.143,206.794 608.5,217.5C 600.825,218.732 593.158,218.732 585.5,217.5C 588.596,207.305 592.262,197.305 596.5,187.5 Z"/></g>
<g><path style="opacity:0.967" fill="#fefffe" d="M 126.5,479.5 C 123.323,448.495 132.99,422.662 155.5,402C 158.661,401.797 160.828,403.297 162,406.5C 171.771,433.16 170.437,459.16 158,484.5C 154.61,488.835 151.777,493.501 149.5,498.5C 146.846,499.342 144.179,499.842 141.5,500C 140.466,496.3 138.3,493.466 135,491.5C 134.333,492.167 133.667,492.833 133,493.5C 132.764,491.881 131.931,490.881 130.5,490.5C 130.34,492.199 130.506,493.866 131,495.5C 139.375,515.248 148.541,534.581 158.5,553.5C 162.243,559.801 166.577,565.468 171.5,570.5C 168.999,558.994 167.332,547.327 166.5,535.5C 166.963,521.661 169.63,508.327 174.5,495.5C 176.5,495.5 178.5,495.5 180.5,495.5C 186.751,503.649 193.251,511.649 200,519.5C 209.082,537.471 212.082,556.471 209,576.5C 207.667,581.167 206.333,585.833 205,590.5C 204.266,592.736 202.766,594.069 200.5,594.5C 197.389,592.408 194.223,590.408 191,588.5C 190.29,589.973 189.124,590.64 187.5,590.5C 187.719,589.325 187.386,588.325 186.5,587.5C 186.167,588 185.833,588.5 185.5,589C 234.725,654.268 298.391,699.601 376.5,725C 391.04,729.013 405.707,732.513 420.5,735.5C 421.731,741.473 419.398,744.14 413.5,743.5C 396.463,741.549 379.797,737.882 363.5,732.5C 362.833,732.667 362.167,732.833 361.5,733C 363.307,734.602 365.307,735.936 367.5,737C 365.153,738.086 365.153,739.419 367.5,741C 363.481,749.35 357.148,755.35 348.5,759C 330.487,765.009 312.487,764.842 294.5,758.5C 293.515,756.902 293.349,755.235 294,753.5C 305.182,743.262 317.682,734.928 331.5,728.5C 335.707,726.845 340.041,725.679 344.5,725C 334.079,719.706 323.579,714.539 313,709.5C 310.901,708.713 308.734,708.38 306.5,708.5C 306.5,709.5 306.5,710.5 306.5,711.5C 307.873,711.343 309.207,711.51 310.5,712C 309.565,714.381 309.232,716.881 309.5,719.5C 308.596,720.209 308.263,721.209 308.5,722.5C 306.492,723.301 305.992,724.634 307,726.5C 301.816,730.345 295.983,732.845 289.5,734C 275.781,736.17 262.781,734.17 250.5,728C 248.5,727.667 246.5,727.333 244.5,727C 235.842,721.564 227.675,715.397 220,708.5C 218.405,706.575 218.238,704.575 219.5,702.5C 235.363,698.85 251.363,695.85 267.5,693.5C 272.834,694.15 278.168,694.316 283.5,694C 269.913,684.957 256.413,675.79 243,666.5C 242.55,669.064 243.716,670.564 246.5,671C 245.552,671.483 244.552,671.649 243.5,671.5C 243.34,673.199 243.506,674.866 244,676.5C 245.049,674.893 246.549,674.227 248.5,674.5C 248.987,678.214 247.821,681.214 245,683.5C 243.913,681.068 243.413,681.402 243.5,684.5C 241.738,684.643 240.071,684.309 238.5,683.5C 235.7,684.732 232.7,685.399 229.5,685.5C 196.187,683.833 172.687,667.833 159,637.5C 157.228,633.687 156.395,629.687 156.5,625.5C 174.729,627.792 192.729,630.959 210.5,635C 208.826,633.494 207.826,631.661 207.5,629.5C 195.17,619.834 184.504,608.501 175.5,595.5C 173.684,594.185 172.017,592.685 170.5,591C 169.552,590.517 168.552,590.351 167.5,590.5C 167.509,588.692 167.009,587.025 166,585.5C 165.358,587.762 164.525,589.929 163.5,592C 164.893,593.171 165.727,594.671 166,596.5C 166.483,595.552 166.649,594.552 166.5,593.5C 167.5,593.5 168.5,593.5 169.5,593.5C 169.229,595.821 169.896,597.821 171.5,599.5C 170.833,600.167 170.167,600.833 169.5,601.5C 170.833,602.167 172.167,602.833 173.5,603.5C 171.887,604.427 170.221,605.261 168.5,606C 169.448,606.483 170.448,606.649 171.5,606.5C 171.427,609.95 169.594,611.283 166,610.5C 159.383,609.721 152.883,608.387 146.5,606.5C 113.306,592.458 92.4723,567.791 84,532.5C 82.809,527.233 82.309,521.899 82.5,516.5C 85.7086,516.411 88.8752,516.744 92,517.5C 110.637,524.309 127.637,533.642 143,545.5C 132.934,525.361 123.601,504.694 115,483.5C 114.764,485.764 114.264,487.931 113.5,490C 114.815,491.395 114.481,492.395 112.5,493C 116.179,494.4 116.179,496.067 112.5,498C 112.944,499.762 113.444,499.595 114,497.5C 115.188,498.563 115.688,499.897 115.5,501.5C 114.167,501.5 112.833,501.5 111.5,501.5C 111.5,502.5 111.5,503.5 111.5,504.5C 106.966,504.733 102.632,503.9 98.5,502C 88.5057,494.757 79.339,486.59 71,477.5C 56.4694,457.708 50.3027,435.374 52.5,410.5C 73.825,416.492 91.6583,428.159 106,445.5C 105.977,440.326 105.477,435.16 104.5,430C 101.943,416.426 99.1095,402.926 96,389.5C 95.5,391.333 94.3333,392.5 92.5,393C 93.0219,393.561 93.3552,394.228 93.5,395C 91.3135,399.247 89.8135,403.413 89,407.5C 85.1059,405.803 81.2725,403.97 77.5,402C 52.1846,380.629 42.1846,353.462 47.5,320.5C 50.0759,316.114 52.0759,311.447 53.5,306.5C 55.0745,305.369 56.7412,305.202 58.5,306C 76.8456,319.347 90.3456,336.513 99,357.5C 98.6086,338.004 100.109,318.67 103.5,299.5C 103.333,297.833 103.167,296.167 103,294.5C 101.817,293.269 100.651,293.269 99.5,294.5C 99.7093,295.086 100.043,295.586 100.5,296C 98.8309,297.669 96.8309,298.502 94.5,298.5C 94.1667,300.5 93.8333,302.5 93.5,304.5C 90.0075,304.998 86.6741,304.998 83.5,304.5C 83.5,303.167 83.5,301.833 83.5,300.5C 81.6096,300.703 80.1096,300.037 79,298.5C 60.697,263.659 64.197,231.493 89.5,202C 93.1661,200.729 95.6661,201.896 97,205.5C 108.811,229.08 114.811,254.08 115,280.5C 127.609,251.992 149.442,235.659 180.5,231.5C 180.891,238.921 180.391,246.254 179,253.5C 169.426,280.335 151.26,298.335 124.5,307.5C 121.572,308.484 118.572,308.817 115.5,308.5C 115.433,306.599 115.767,304.766 116.5,303C 116.167,302.5 115.833,302 115.5,301.5C 109.803,320.735 106.469,340.401 105.5,360.5C 105.386,363.364 105.886,366.03 107,368.5C 107.911,365.689 108.744,362.856 109.5,360C 112.854,354.657 115.688,349.157 118,343.5C 127.912,330.21 140.412,320.043 155.5,313C 157.167,312.333 158.833,312.333 160.5,313C 163.196,329.226 161.196,344.893 154.5,360C 146.53,376.965 134.696,390.465 119,400.5C 117.359,398.955 116.193,399.289 115.5,401.5C 113.955,402.452 112.288,402.785 110.5,402.5C 110.264,409.903 111.43,421.236 114,436.5C 116.49,450.598 119.99,464.431 124.5,478C 124.836,479.03 125.503,479.53 126.5,479.5 Z M 106.5,447.5 C 106.56,446.957 106.893,446.624 107.5,446.5C 108.583,447.365 108.749,448.365 108,449.5C 107.722,448.584 107.222,447.918 106.5,447.5 Z M 126.5,479.5 C 127.693,479.97 128.36,480.97 128.5,482.5C 128.167,483.5 127.833,484.5 127.5,485.5C 126.534,483.604 126.201,481.604 126.5,479.5 Z M 130.5,490.5 C 128.535,490.052 128.202,489.052 129.5,487.5C 130.386,488.325 130.719,489.325 130.5,490.5 Z M 171.5,570.5 C 173.028,570.517 173.528,571.184 173,572.5C 172.283,571.956 171.783,571.289 171.5,570.5 Z"/></g>
<g><path style="opacity:0.965" fill="#fefffe" d="M 888.5,401.5 C 889.675,401.719 890.675,401.386 891.5,400.5C 889.955,399.548 888.288,399.215 886.5,399.5C 887.401,395.759 886.068,393.759 882.5,393.5C 882.759,389.76 882.426,386.094 881.5,382.5C 882.025,381.808 882.692,381.308 883.5,381C 882.692,380.692 882.025,380.192 881.5,379.5C 882.734,377.602 882.401,375.935 880.5,374.5C 879.707,378.841 878.373,383.007 876.5,387C 873.054,407.258 869.554,427.425 866,447.5C 870.793,441.705 875.96,436.205 881.5,431C 887.338,428.178 892.671,424.512 897.5,420C 902.617,418.545 907.284,416.211 911.5,413C 914.726,411.801 918.059,411.301 921.5,411.5C 922.815,421.607 922.149,431.607 919.5,441.5C 917.168,449.325 914.335,456.992 911,464.5C 908.945,468.261 906.612,471.928 904,475.5C 896.833,481.333 890.333,487.833 884.5,495C 880.13,497.185 875.797,499.351 871.5,501.5C 869.61,500.388 867.61,499.554 865.5,499C 864.941,498.275 864.608,497.442 864.5,496.5C 865.43,494.895 865.43,493.395 864.5,492C 866.721,490.331 867.055,488.331 865.5,486C 865.767,482.968 866.767,480.301 868.5,478C 867.092,475.708 867.259,473.541 869,471.5C 870.065,475.378 870.899,475.378 871.5,471.5C 870.647,468.929 870.647,466.262 871.5,463.5C 870.07,463.421 868.736,463.754 867.5,464.5C 865.638,469.847 862.971,474.681 859.5,479C 849.548,501.734 839.214,524.234 828.5,546.5C 834.326,542.56 839.993,538.393 845.5,534C 854.814,529.368 864.147,524.701 873.5,520C 878.325,518.105 883.325,517.272 888.5,517.5C 887.824,542.693 878.824,564.36 861.5,582.5C 860.675,583.386 859.675,583.719 858.5,583.5C 858.5,584.5 858.5,585.5 858.5,586.5C 852.362,590.426 846.362,594.593 840.5,599C 830.549,604.207 820.049,608.04 809,610.5C 806.815,610.079 804.649,609.579 802.5,609C 801.448,607.284 802.114,606.284 804.5,606C 800.856,604.17 801.19,602.503 805.5,601C 805.043,600.586 804.709,600.086 804.5,599.5C 806.979,596.65 807.979,593.316 807.5,589.5C 808.5,589.5 809.5,589.5 810.5,589.5C 811.833,587.167 811.833,584.833 810.5,582.5C 812.199,582.66 813.866,582.494 815.5,582C 814.23,581.1 813.23,579.934 812.5,578.5C 808.758,581.023 805.925,584.357 804,588.5C 789.667,604.666 774.833,620.333 759.5,635.5C 765.26,635.489 770.927,634.156 776.5,631.5C 789.054,628.86 801.72,627.193 814.5,626.5C 814.649,629.607 814.149,632.607 813,635.5C 808.387,646.203 802.22,655.87 794.5,664.5C 793.675,665.386 792.675,665.719 791.5,665.5C 791.719,666.675 791.386,667.675 790.5,668.5C 772.137,682.59 751.471,687.59 728.5,683.5C 727.833,683.167 727.167,682.833 726.5,682.5C 727.376,681.749 728.376,681.249 729.5,681C 726.518,680.502 723.518,680.335 720.5,680.5C 720.5,679.167 720.5,677.833 720.5,676.5C 723.127,677.092 725.794,677.425 728.5,677.5C 728.5,674.833 728.5,672.167 728.5,669.5C 729.5,669.5 730.5,669.5 731.5,669.5C 731.643,664.883 729.976,664.216 726.5,667.5C 715.044,675.417 703.711,683.584 692.5,692C 690.913,692.862 689.246,693.529 687.5,694C 696.5,694.333 705.5,694.667 714.5,695C 727.113,697.487 739.779,699.653 752.5,701.5C 752.662,703.527 752.495,705.527 752,707.5C 731.871,728.328 707.371,737.161 678.5,734C 670.245,732.311 662.912,728.811 656.5,723.5C 657.242,721.65 658.242,720.984 659.5,721.5C 655.665,720.004 655.665,719.004 659.5,718.5C 659.5,716.833 659.5,715.167 659.5,713.5C 664.51,713.721 664.677,712.721 660,710.5C 649.226,715.471 638.392,720.304 627.5,725C 640.821,727.667 652.821,733 663.5,741C 668.047,745.714 673.047,749.88 678.5,753.5C 679.992,756.767 678.992,758.934 675.5,760C 666.934,761.381 658.434,762.881 650,764.5C 633.059,764.695 618.393,759.029 606,747.5C 604.293,745.091 603.46,742.425 603.5,739.5C 604.5,739.5 605.5,739.5 606.5,739.5C 606.828,736.996 608.162,735.162 610.5,734C 609.667,733.833 608.833,733.667 608,733.5C 595.685,735.717 583.518,738.55 571.5,742C 564.555,743.23 557.555,743.73 550.5,743.5C 550.34,741.801 550.506,740.134 551,738.5C 566.385,732.31 582.218,727.477 598.5,724C 641.477,709.024 680.81,688.191 716.5,661.5C 730.958,650.392 744.625,638.058 757.5,624.5C 758.325,623.614 759.325,623.281 760.5,623.5C 760.5,622.5 760.5,621.5 760.5,620.5C 761.5,620.5 762.5,620.5 763.5,620.5C 763.351,619.448 763.517,618.448 764,617.5C 769.691,612.642 774.858,607.309 779.5,601.5C 783.605,594.938 787.939,588.605 792.5,582.5C 789.277,581.448 786.277,582.114 783.5,584.5C 782.205,581.988 781.539,579.321 781.5,576.5C 779.712,576.215 778.045,576.548 776.5,577.5C 777.325,578.386 778.325,578.719 779.5,578.5C 779.5,579.5 779.5,580.5 779.5,581.5C 777.833,581.5 776.167,581.5 774.5,581.5C 774.5,582.5 774.5,583.5 774.5,584.5C 772.876,584.36 771.71,585.027 771,586.5C 770.667,585.833 770.333,585.167 770,584.5C 768.989,585.337 767.822,585.67 766.5,585.5C 762.712,569.525 762.545,553.525 766,537.5C 771.764,522.497 780.264,509.33 791.5,498C 793.345,496.872 795.345,496.372 797.5,496.5C 802.133,508.872 804.799,521.705 805.5,535C 804.324,547.881 801.99,560.548 798.5,573C 798.667,573.833 798.833,574.667 799,575.5C 812.644,558.921 823.31,540.254 831,519.5C 833.043,518.421 834.376,516.754 835,514.5C 839.882,500.187 845.549,486.187 852,472.5C 855.68,458.289 858.847,443.956 861.5,429.5C 861.392,428.558 861.059,427.725 860.5,427C 862.556,418.668 863.556,410.168 863.5,401.5C 860.161,401.11 856.827,400.61 853.5,400C 845.508,395.024 838.341,388.857 832,381.5C 827.984,376.471 824.318,371.137 821,365.5C 817.337,356.012 814.171,346.345 811.5,336.5C 810.565,328.514 810.565,320.514 811.5,312.5C 818.81,313.544 825.476,316.044 831.5,320C 837.931,324.427 843.764,329.594 849,335.5C 851.857,340.45 855.191,345.117 859,349.5C 862.127,357.009 864.794,364.675 867,372.5C 865.998,352.472 864.331,332.472 862,312.5C 861.474,309.117 860.141,306.117 858,303.5C 856.912,309.37 853.579,311.036 848,308.5C 823.398,298.398 805.898,281.065 795.5,256.5C 792.544,248.43 791.211,240.096 791.5,231.5C 813.108,233.885 830.942,243.218 845,259.5C 847.969,264.352 851.303,269.019 855,273.5C 856.275,275.717 857.275,278.051 858,280.5C 857.45,252.665 863.95,226.665 877.5,202.5C 879.074,201.369 880.741,201.202 882.5,202C 904.534,224.808 910.534,251.475 900.5,282C 897.834,288 894.834,293.834 891.5,299.5C 889.922,300.298 888.256,300.798 886.5,301C 887.337,302.011 887.67,303.178 887.5,304.5C 885.567,304.271 883.9,303.438 882.5,302C 883.5,301.667 884.5,301.333 885.5,301C 883.598,300.801 882.098,299.967 881,298.5C 879.817,299.731 878.651,299.731 877.5,298.5C 877.709,297.914 878.043,297.414 878.5,297C 875.624,290.057 873.124,282.89 871,275.5C 869.633,282.267 868.8,289.1 868.5,296C 870.783,312.292 872.783,328.625 874.5,345C 873.708,349.157 873.542,353.323 874,357.5C 878.55,347.003 884.217,337.337 891,328.5C 897.286,321.069 904.12,314.236 911.5,308C 913.909,306.293 916.575,305.46 919.5,305.5C 931.992,338.992 926.325,368.825 902.5,395C 901.552,395.483 900.552,395.649 899.5,395.5C 899.5,396.5 899.5,397.5 899.5,398.5C 897.095,399.687 894.761,401.187 892.5,403C 890.537,403.844 889.204,403.344 888.5,401.5 Z M 861.5,396.5 C 863.337,396.639 863.67,397.306 862.5,398.5C 861.702,398.043 861.369,397.376 861.5,396.5 Z M 867.5,486.5 C 869.337,486.639 869.67,487.306 868.5,488.5C 867.702,488.043 867.369,487.376 867.5,486.5 Z M 828.5,546.5 C 828.217,547.289 827.717,547.956 827,548.5C 826.472,547.184 826.972,546.517 828.5,546.5 Z M 823.5,565.5 C 825.337,565.639 825.67,566.306 824.5,567.5C 823.702,567.043 823.369,566.376 823.5,565.5 Z M 815.5,573.5 C 816.773,574.077 816.773,574.743 815.5,575.5C 814.537,575.03 814.537,574.363 815.5,573.5 Z M 774.5,581.5 C 772.24,580.762 772.073,579.762 774,578.5C 774.483,579.448 774.649,580.448 774.5,581.5 Z"/></g>
<g><path style="opacity:0.864" fill="#fefffe" d="M 848.5,212.5 C 849.289,212.783 849.956,213.283 850.5,214C 849.184,214.528 848.517,214.028 848.5,212.5 Z"/></g>
<g><path style="opacity:1" fill="#fefffe" d="M 88.5,306.5 C 90.337,306.639 90.6704,307.306 89.5,308.5C 88.7025,308.043 88.3691,307.376 88.5,306.5 Z"/></g>
<g><path style="opacity:0.997" fill="#fefffe" d="M 286.5,319.5 C 321.5,319.5 356.5,319.5 391.5,319.5C 391.5,330.167 391.5,340.833 391.5,351.5C 367.86,351.8 344.193,351.8 320.5,351.5C 320.5,359.5 320.5,367.5 320.5,375.5C 342.167,375.5 363.833,375.5 385.5,375.5C 385.5,385.833 385.5,396.167 385.5,406.5C 363.833,406.5 342.167,406.5 320.5,406.5C 320.5,415.167 320.5,423.833 320.5,432.5C 344.167,432.5 367.833,432.5 391.5,432.5C 392.404,443.135 392.737,453.802 392.5,464.5C 357.167,464.5 321.833,464.5 286.5,464.5C 286.5,416.167 286.5,367.833 286.5,319.5 Z"/></g>
<g><path style="opacity:0.99" fill="#fefffe" d="M 455.5,319.5 C 470.833,319.5 486.167,319.5 501.5,319.5C 501.573,324.097 503.073,328.097 506,331.5C 508.762,341.69 512.095,351.69 516,361.5C 527.887,391.633 539.72,421.8 551.5,452C 553.105,455.998 553.771,460.165 553.5,464.5C 542.167,464.5 530.833,464.5 519.5,464.5C 517.72,458.156 515.72,451.822 513.5,445.5C 512.914,445.291 512.414,444.957 512,444.5C 511.505,442.527 511.338,440.527 511.5,438.5C 489.167,438.5 466.833,438.5 444.5,438.5C 443.644,445.569 441.477,452.236 438,458.5C 437.505,460.473 437.338,462.473 437.5,464.5C 426.167,464.5 414.833,464.5 403.5,464.5C 403.177,460.774 403.511,457.107 404.5,453.5C 421.339,408.634 438.339,363.967 455.5,319.5 Z M 475.5,353.5 C 477.167,353.5 478.833,353.5 480.5,353.5C 485.002,368.924 490.335,384.091 496.5,399C 497.216,401.792 497.549,404.626 497.5,407.5C 485.162,407.667 472.829,407.5 460.5,407C 456.488,406.43 455.988,405.263 459,403.5C 464.794,386.952 470.294,370.286 475.5,353.5 Z"/></g>
<g><path style="opacity:0.989" fill="#fefffe" d="M 565.5,319.5 C 578.504,319.333 591.504,319.5 604.5,320C 623.054,348.472 641.387,377.306 659.5,406.5C 660.5,377.508 660.833,348.508 660.5,319.5C 671.833,319.5 683.167,319.5 694.5,319.5C 694.5,367.833 694.5,416.167 694.5,464.5C 682.5,464.5 670.5,464.5 658.5,464.5C 657.725,460.006 655.558,456.339 652,453.5C 638.67,432.321 625.503,410.988 612.5,389.5C 607.756,384.712 604.089,379.045 601.5,372.5C 600.675,371.614 599.675,371.281 598.5,371.5C 598.295,402.509 598.628,433.509 599.5,464.5C 588.167,464.5 576.833,464.5 565.5,464.5C 565.5,416.167 565.5,367.833 565.5,319.5 Z"/></g>
<g><path style="opacity:0.678" fill="#fefffe" d="M 880.5,389.5 C 881.525,389.897 881.692,390.563 881,391.5C 880.536,390.906 880.369,390.239 880.5,389.5 Z"/></g>
<g><path style="opacity:0.684" fill="#fefffe" d="M 888.5,401.5 C 887.761,401.631 887.094,401.464 886.5,401C 887.437,400.308 888.103,400.475 888.5,401.5 Z"/></g>
<g><path style="opacity:0.964" fill="#fefffe" d="M 813.5,401.5 C 815.199,401.34 816.866,401.506 818.5,402C 824.237,409.027 829.737,416.194 835,423.5C 837.479,429.277 840.145,434.944 843,440.5C 845.776,454.736 846.276,469.069 844.5,483.5C 842.064,483.683 839.897,483.016 838,481.5C 837.383,484.035 837.883,486.368 839.5,488.5C 835.323,492.931 830.323,494.431 824.5,493C 825.448,493.483 826.448,493.649 827.5,493.5C 827.5,494.5 827.5,495.5 827.5,496.5C 825.278,496.822 823.444,496.155 822,494.5C 812.569,479.26 806.735,462.594 804.5,444.5C 804.844,429.505 807.844,415.171 813.5,401.5 Z"/></g>
<g><path style="opacity:0.536" fill="#fefffe" d="M 864.5,500.5 C 865.978,500.238 867.311,500.571 868.5,501.5C 866.537,504.194 865.203,503.861 864.5,500.5 Z"/></g>
<g><path style="opacity:0.968" fill="#fefffe" d="M 230.5,571.5 C 233.93,572.714 237.264,574.214 240.5,576C 246.178,580.412 251.845,584.745 257.5,589C 279.057,607.92 287.39,631.753 282.5,660.5C 279.553,661.423 276.553,662.089 273.5,662.5C 273.671,659.203 273.005,658.869 271.5,661.5C 268.02,661.146 265.02,659.813 262.5,657.5C 261.549,658.326 260.549,658.492 259.5,658C 232.544,635.158 222.877,606.325 230.5,571.5 Z"/></g>
<g><path style="opacity:0.967" fill="#fefffe" d="M 737.5,571.5 C 739.722,571.178 741.556,571.845 743,573.5C 746.047,592.193 744.381,610.526 738,628.5C 735.672,632.163 733.338,635.83 731,639.5C 726.59,643.47 722.757,647.97 719.5,653C 715.397,654.716 712.064,657.383 709.5,661C 706,662.167 702.5,663.333 699,664.5C 697.739,664.241 696.739,663.574 696,662.5C 695.804,664.286 694.971,665.619 693.5,666.5C 688.216,660.208 685.883,652.874 686.5,644.5C 688.495,622.348 697.495,603.848 713.5,589C 721.442,582.89 729.442,577.056 737.5,571.5 Z"/></g>
<g><path style="opacity:1" fill="#fefffe" d="M 780.5,582.5 C 781.573,583.251 781.74,584.251 781,585.5C 780.517,584.552 780.351,583.552 780.5,582.5 Z"/></g>
<g><path style="opacity:1" fill="#fefffe" d="M 776.5,584.5 C 777.077,583.227 777.743,583.227 778.5,584.5C 778.03,585.463 777.363,585.463 776.5,584.5 Z"/></g>
<g><path style="opacity:0.954" fill="#fefffe" d="M 458.5,588.5 C 469.372,588.174 478.539,591.84 486,599.5C 486.465,598.069 487.299,596.903 488.5,596C 494.759,592.913 501.259,590.413 508,588.5C 514.185,589.781 520.352,591.114 526.5,592.5C 532.168,595.144 537.501,598.144 542.5,601.5C 542.5,623.167 542.5,644.833 542.5,666.5C 540.473,666.662 538.473,666.495 536.5,666C 532.855,663.173 528.855,660.84 524.5,659C 518.96,658.425 513.46,657.592 508,656.5C 503.227,657.424 498.56,658.757 494,660.5C 491.597,663.408 488.763,665.741 485.5,667.5C 482.05,665.226 478.717,662.726 475.5,660C 467.415,656.298 459.081,655.632 450.5,658C 443.254,661.467 435.921,664.634 428.5,667.5C 428.333,645.497 428.5,623.497 429,601.5C 437.952,594.983 447.785,590.65 458.5,588.5 Z M 457.5,604.5 C 465.781,604.152 473.114,606.485 479.5,611.5C 480.48,614.086 480.813,616.753 480.5,619.5C 473.777,617.204 466.944,615.204 460,613.5C 452.263,615.121 444.763,617.455 437.5,620.5C 437.187,617.753 437.52,615.086 438.5,612.5C 441.834,611.169 444.834,609.335 447.5,607C 450.991,606.262 454.325,605.429 457.5,604.5 Z M 505.5,604.5 C 514.319,604.485 522.653,606.485 530.5,610.5C 533.422,613.662 534.089,617.328 532.5,621.5C 521.207,614.183 509.207,612.683 496.5,617C 494.152,617.346 492.319,618.513 491,620.5C 490.333,617.833 490.333,615.167 491,612.5C 494.881,607.862 499.714,605.196 505.5,604.5 Z M 459.5,630.5 C 466.882,630.944 473.548,633.277 479.5,637.5C 480.833,640.167 480.833,642.833 479.5,645.5C 470.372,640.274 460.705,639.108 450.5,642C 446.147,643.565 441.814,645.065 437.5,646.5C 437.187,643.753 437.52,641.086 438.5,638.5C 441.621,637.774 444.287,636.274 446.5,634C 450.919,632.648 455.252,631.481 459.5,630.5 Z M 505.5,630.5 C 515.282,630.314 524.282,632.981 532.5,638.5C 533.833,641.5 533.833,644.5 532.5,647.5C 520.775,640.767 508.442,639.267 495.5,643C 494.636,644.697 493.303,645.863 491.5,646.5C 490.091,643.836 489.757,641.169 490.5,638.5C 494.53,633.802 499.53,631.136 505.5,630.5 Z"/></g>
<g><path style="opacity:0.974" fill="#fefffe" d="M 299.5,623.5 C 301.527,623.338 303.527,623.505 305.5,624C 318.331,631.25 331.331,638.25 344.5,645C 367.796,661.164 379.13,683.664 378.5,712.5C 377.5,712.5 376.5,712.5 375.5,712.5C 375.649,713.552 375.483,714.552 375,715.5C 368.805,714.043 362.639,712.71 356.5,711.5C 356.9,708.239 355.733,707.572 353,709.5C 350.11,708.87 347.276,708.037 344.5,707C 338.909,704.397 333.575,701.397 328.5,698C 304.907,682.306 294.407,660.14 297,631.5C 298.136,628.904 298.969,626.237 299.5,623.5 Z"/></g>
<g><path style="opacity:0.978" fill="#fefffe" d="M 665.5,623.5 C 667.833,623.5 670.167,623.5 672.5,623.5C 678.438,649.984 671.771,672.484 652.5,691C 651.552,691.483 650.552,691.649 649.5,691.5C 649.5,692.5 649.5,693.5 649.5,694.5C 641.944,697.948 634.61,701.948 627.5,706.5C 624.032,708.324 620.365,709.324 616.5,709.5C 616.649,708.448 616.483,707.448 616,706.5C 615.283,711.518 612.616,713.185 608,711.5C 603.796,714.725 599.296,715.558 594.5,714C 592.795,704.008 593.628,694.174 597,684.5C 599.304,678.221 601.971,672.221 605,666.5C 610.2,661.635 615.033,656.468 619.5,651C 620.448,650.517 621.448,650.351 622.5,650.5C 622.5,649.5 622.5,648.5 622.5,647.5C 633.355,641.488 644.522,635.822 656,630.5C 659.468,628.522 662.635,626.189 665.5,623.5 Z"/></g>
<g><path style="opacity:0.913" fill="#fefffe" d="M 547.5,678.5 C 548.5,678.5 549.5,678.5 550.5,678.5C 550.657,679.873 550.49,681.207 550,682.5C 544.228,688.78 538.061,694.446 531.5,699.5C 530.515,703.33 528.181,706.163 524.5,708C 525.5,708.667 526.5,708.667 527.5,708C 535.75,700.753 543.75,693.086 551.5,685C 553.146,683.599 554.813,683.432 556.5,684.5C 548.211,693.625 539.711,702.625 531,711.5C 530.251,712.635 530.417,713.635 531.5,714.5C 540.253,704.745 549.586,695.745 559.5,687.5C 559.833,688 560.167,688.5 560.5,689C 553.359,698.141 545.526,706.641 537,714.5C 535.813,716.044 535.48,717.711 536,719.5C 544.806,710.694 553.64,701.86 562.5,693C 563.448,692.517 564.448,692.351 565.5,692.5C 565.657,693.873 565.49,695.207 565,696.5C 558.399,704.609 551.565,712.609 544.5,720.5C 543.675,721.386 542.675,721.719 541.5,721.5C 539.16,726.683 535.493,730.85 530.5,734C 524.785,736.571 518.785,737.904 512.5,738C 505.362,744.126 499.029,750.96 493.5,758.5C 512.485,776.318 531.318,794.318 550,812.5C 553.909,822.825 550.409,826.658 539.5,824C 532.445,815.941 524.945,808.107 517,800.5C 507.311,788.586 496.811,777.253 485.5,766.5C 480.714,772.293 475.38,777.293 469.5,781.5C 469.649,782.552 469.483,783.552 469,784.5C 457.15,797.016 445.316,809.516 433.5,822C 421.871,826.974 418.038,823.474 422,811.5C 440.375,793.623 458.875,775.957 477.5,758.5C 471.572,751.234 465.239,744.234 458.5,737.5C 450.821,737.828 443.154,737.328 435.5,736C 421.931,726.661 412.931,713.828 408.5,697.5C 410.313,685.255 417.313,680.421 429.5,683C 443.415,687.603 454.582,695.77 463,707.5C 464.057,715.464 464.723,723.464 465,731.5C 471.16,738.822 478.16,745.155 486,750.5C 492.988,744.18 499.988,737.846 507,731.5C 507.427,725.473 508.093,719.473 509,713.5C 521.506,701.146 534.339,689.48 547.5,678.5 Z"/></g>
<g><path style="opacity:0.676" fill="#fefffe" d="M 723.5,681.5 C 724.525,681.897 724.692,682.563 724,683.5C 723.536,682.906 723.369,682.239 723.5,681.5 Z"/></g>
<g><path style="opacity:0.676" fill="#fefffe" d="M 309.5,719.5 C 310.552,719.351 311.552,719.517 312.5,720C 311.366,721.016 311.699,721.683 313.5,722C 311.671,722.273 310.171,723.107 309,724.5C 308.536,723.906 308.369,723.239 308.5,722.5C 309.404,721.791 309.737,720.791 309.5,719.5 Z"/></g>
<g><path style="opacity:0.954" fill="#fefffe" d="M 460.5,813.5 C 476.833,813.5 493.167,813.5 509.5,813.5C 509.579,816.271 509.079,818.937 508,821.5C 503.322,831.522 498.655,841.522 494,851.5C 490.99,855.507 487.99,859.507 485,863.5C 481.378,858.345 478.045,853.012 475,847.5C 472.085,839.171 468.252,831.338 463.5,824C 462.189,820.569 461.189,817.069 460.5,813.5 Z M 477.5,824.5 C 482.833,824.5 488.167,824.5 493.5,824.5C 491.309,830.698 488.642,836.698 485.5,842.5C 482.362,836.7 479.695,830.7 477.5,824.5 Z"/></g>
<g><path style="opacity:0.882" fill="#fefffe" d="M 409.5,864.5 C 429.93,863.413 436.764,872.413 430,891.5C 425.798,895.367 421.965,899.533 418.5,904C 416.156,904.837 414.156,906.171 412.5,908C 418.616,908.824 424.616,908.324 430.5,906.5C 431.95,905.15 432.617,903.484 432.5,901.5C 433.5,901.5 434.5,901.5 435.5,901.5C 435.423,905.877 434.923,910.21 434,914.5C 431.734,915.956 429.234,916.79 426.5,917C 417.167,917.667 407.833,917.667 398.5,917C 397.269,915.817 397.269,914.651 398.5,913.5C 400.958,911.545 403.291,909.378 405.5,907C 406.448,906.517 407.448,906.351 408.5,906.5C 408.351,905.448 408.517,904.448 409,903.5C 419.922,894.643 422.422,883.81 416.5,871C 414.782,870.654 413.115,870.154 411.5,869.5C 409.271,870.577 406.937,871.244 404.5,871.5C 404.167,874.167 403.833,876.833 403.5,879.5C 402.5,879.5 401.5,879.5 400.5,879.5C 400.334,875.486 400.501,871.486 401,867.5C 403.949,866.563 406.783,865.563 409.5,864.5 Z"/></g>
<g><path style="opacity:0.879" fill="#fefffe" d="M 547.5,864.5 C 554.139,863.778 560.306,865.111 566,868.5C 570.901,877.815 568.401,883.982 558.5,887C 572.541,891.489 575.208,899.823 566.5,912C 557.564,918.1 547.897,919.767 537.5,917C 536.874,916.25 536.374,915.416 536,914.5C 535.501,910.848 535.335,907.182 535.5,903.5C 536.5,903.5 537.5,903.5 538.5,903.5C 537.846,907.683 539.512,910.516 543.5,912C 544.872,912.402 546.205,912.902 547.5,913.5C 550.021,912.215 552.687,911.548 555.5,911.5C 561.492,901.138 558.825,894.138 547.5,890.5C 546.614,889.675 546.281,888.675 546.5,887.5C 549.167,886.833 551.833,886.167 554.5,885.5C 558.657,873.364 554.324,868.698 541.5,871.5C 541.167,873.5 540.833,875.5 540.5,877.5C 539.5,877.5 538.5,877.5 537.5,877.5C 537.335,874.15 537.502,870.817 538,867.5C 541.313,866.68 544.479,865.68 547.5,864.5 Z"/></g>
<g><path style="opacity:0.911" fill="#fefffe" d="M 454.5,865.5 C 467.443,862.49 475.943,867.157 480,879.5C 482.767,890.246 481.767,900.58 477,910.5C 469.865,917.688 461.365,919.521 451.5,916C 438.387,901.763 437.22,886.597 448,870.5C 450.429,869.106 452.596,867.44 454.5,865.5 Z M 458.5,869.5 C 460.288,869.215 461.955,869.548 463.5,870.5C 465.881,873.929 467.715,877.596 469,881.5C 469.725,890.398 469.225,899.232 467.5,908C 465.806,912.294 462.806,913.46 458.5,911.5C 456.219,908.16 454.719,904.493 454,900.5C 453.169,893.144 453.335,885.811 454.5,878.5C 455.281,875.118 456.615,872.118 458.5,869.5 Z"/></g>
<g><path style="opacity:0.91" fill="#fefffe" d="M 505.5,865.5 C 517.249,863.426 524.749,868.093 528,879.5C 530.767,890.246 529.767,900.58 525,910.5C 517.865,917.688 509.365,919.521 499.5,916C 489.886,907.202 486.719,896.369 490,883.5C 491.163,873.849 496.33,867.849 505.5,865.5 Z M 506.5,869.5 C 510.204,869.212 512.871,870.712 514.5,874C 518.482,886.136 518.482,898.302 514.5,910.5C 512.149,912.229 509.482,912.896 506.5,912.5C 502.076,901.183 500.91,889.517 503,877.5C 504.083,874.733 505.25,872.067 506.5,869.5 Z"/></g>
</svg>
