<?xml version="1.0" standalone="no"?>
<!DOCTYPE svg PUBLIC "-//W3C//DTD SVG 20010904//EN"
 "http://www.w3.org/TR/2001/REC-SVG-20010904/DTD/svg10.dtd">
<svg version="1.0" xmlns="http://www.w3.org/2000/svg"
 width="988.000000pt" height="980.000000pt" viewBox="0 0 988.000000 980.000000"
 preserveAspectRatio="xMidYMid meet">

<g transform="translate(0.000000,980.000000) scale(0.100000,-0.100000)"
fill="#000000" stroke="none">
<path d="M2194 9367 c-64 -24 -214 -121 -266 -172 -53 -51 -114 -129 -137
-173 -43 -81 -64 -278 -42 -384 14 -64 45 -114 55 -88 7 16 43 19 64 6 6 -3
20 2 32 14 11 11 22 20 25 20 8 0 6 -28 -2 -32 -10 -4 -123 -134 -123 -141 0
-3 -16 -28 -35 -57 -34 -50 -46 -100 -24 -100 12 0 203 179 207 195 5 17 76
59 80 46 2 -6 8 -11 14 -11 5 0 7 9 3 19 -4 14 1 25 20 37 31 20 34 18 40 -31
5 -33 3 -36 -10 -25 -8 7 -12 16 -9 21 3 5 0 9 -5 9 -15 0 -14 -33 2 -49 10
-11 10 -14 0 -18 -25 -9 -13 -22 20 -21 17 0 60 -3 94 -7 84 -9 184 14 303 72
80 39 108 59 180 132 60 62 97 109 125 163 22 43 36 80 33 83 -10 10 -185 35
-243 35 -71 0 -209 -26 -260 -49 -24 -11 -71 -35 -105 -55 -34 -20 -63 -36
-66 -36 -2 0 2 12 9 28 18 34 37 103 72 257 23 98 27 135 22 205 -7 125 -11
130 -73 107z"/>
<path d="M7462 9355 c-39 -85 17 -405 99 -567 15 -31 10 -31 -26 -3 -48 36
-147 80 -237 105 -89 24 -296 28 -368 6 -39 -12 -45 -17 -43 -40 2 -34 18 -61
77 -137 45 -57 134 -147 177 -177 42 -29 163 -83 217 -97 59 -15 155 -20 231
-12 31 3 49 11 62 28 16 21 16 25 4 35 -8 6 -15 16 -15 23 0 6 -7 14 -15 17
-18 7 -10 24 11 24 8 0 14 -7 14 -15 0 -8 6 -12 13 -9 7 2 24 -7 37 -21 13
-14 29 -25 37 -25 7 0 13 -4 13 -10 0 -17 215 -221 230 -217 39 8 -7 93 -124
231 -36 43 -66 81 -66 86 0 15 31 20 36 5 7 -18 35 -20 52 -3 9 9 12 9 12 1 0
-24 53 -6 68 23 20 38 27 190 14 278 -30 189 -191 376 -403 466 -86 36 -93 37
-107 5z"/>
<path d="M1443 8648 c-166 -121 -269 -250 -319 -398 -15 -43 -19 -85 -19 -190
0 -119 4 -146 28 -227 36 -118 53 -152 84 -164 31 -11 36 -11 28 0 -3 5 6 21
20 35 22 22 26 23 34 8 5 -9 13 -13 17 -9 5 5 2 12 -5 16 -16 10 -6 31 15 31
18 0 12 -30 -26 -125 -40 -98 -83 -244 -77 -259 3 -7 15 -16 27 -19 20 -5 29
10 99 156 76 159 144 268 195 316 23 22 26 22 32 6 4 -9 3 -20 -2 -24 -5 -3
-19 -21 -32 -38 -15 -23 -18 -31 -7 -27 20 8 19 -6 -2 -22 -16 -12 -16 -15 -3
-24 13 -9 13 -12 -3 -24 -16 -13 -16 -14 7 -30 14 -9 27 -12 31 -6 3 5 15 6
27 1 40 -14 189 45 295 117 77 52 187 170 256 275 154 234 169 260 155 268
-23 15 -98 22 -163 15 -83 -8 -272 -62 -307 -87 -15 -10 -32 -19 -39 -19 -17
0 -65 -37 -161 -123 -49 -43 -88 -73 -88 -67 0 7 7 40 16 74 22 83 23 355 1
443 -19 78 -47 137 -68 141 -8 1 -29 -8 -46 -20z m166 -782 c9 -10 8 -15 -4
-20 -10 -4 -15 1 -15 14 0 24 4 25 19 6z"/>
<path d="M8206 8645 c-40 -61 -67 -257 -54 -395 14 -152 21 -200 29 -206 5 -3
9 -15 9 -26 0 -18 -8 -13 -52 28 -122 114 -195 160 -331 209 -128 47 -338 66
-387 35 -12 -8 -12 -11 2 -27 25 -29 84 -117 107 -159 43 -79 140 -205 211
-272 57 -55 159 -123 236 -157 74 -33 204 -59 219 -44 7 7 4 15 -9 25 -19 14
-19 14 3 14 12 0 19 4 16 10 -3 6 0 10 8 10 23 0 8 62 -21 87 -20 17 -24 25
-15 34 16 16 24 8 76 -69 43 -63 157 -277 157 -295 0 -10 41 -69 55 -79 12 -9
35 10 35 28 0 17 -56 189 -75 231 -8 17 -15 37 -15 44 0 7 -7 20 -15 29 -9 10
-19 34 -22 54 -4 29 -2 36 11 36 9 0 16 -6 16 -14 0 -7 9 -16 20 -19 11 -3 20
-12 20 -21 0 -9 7 -16 15 -16 8 0 15 -5 15 -11 0 -6 8 -8 19 -4 13 4 23 0 30
-12 16 -29 71 103 87 212 27 176 10 317 -52 445 -31 63 -57 95 -160 198 -133
131 -157 144 -188 97z m-36 -795 c0 -5 -4 -10 -10 -10 -5 0 -10 5 -10 10 0 6
5 10 10 10 6 0 10 -4 10 -10z"/>
<path d="M3430 7995 l0 -65 120 0 120 0 0 -300 0 -300 70 0 70 0 0 300 0 300
120 0 120 0 0 65 0 65 -310 0 -310 0 0 -65z"/>
<path d="M4180 7760 l0 -299 48 -49 c58 -57 120 -80 239 -89 95 -7 160 10 234
59 91 61 89 54 89 386 l0 292 -70 0 -70 0 0 -268 0 -268 -28 -27 c-41 -39
-107 -59 -167 -51 -59 8 -80 17 -111 53 -23 26 -23 28 -24 294 l0 267 -70 0
-70 0 0 -300z"/>
<path d="M4900 7700 l0 -360 70 0 70 0 0 258 1 257 20 -25 c23 -29 258 -383
296 -447 l25 -43 74 0 74 0 0 360 0 360 -70 0 -70 0 0 -241 c0 -269 0 -269
-61 -162 -17 29 -71 113 -121 186 -50 73 -101 151 -115 175 l-25 42 -84 0 -84
0 0 -360z"/>
<path d="M5847 7972 c-20 -49 -37 -92 -37 -95 0 -7 -140 -370 -181 -469 -10
-26 -19 -51 -19 -57 0 -7 27 -11 69 -11 l70 0 19 53 c11 28 23 62 26 75 7 22
10 22 171 22 167 0 195 -3 195 -24 1 -6 9 -29 20 -51 11 -22 19 -48 20 -57 0
-16 10 -18 74 -18 l74 0 -25 78 c-13 42 -35 100 -49 129 -13 28 -24 55 -24 60
0 4 -40 107 -89 228 l-90 220 -93 3 -93 3 -38 -89z m153 -91 c0 -8 9 -33 19
-55 11 -23 33 -78 50 -123 25 -69 28 -82 15 -87 -22 -9 -207 -7 -220 2 -7 5 9
57 49 160 54 136 62 152 74 136 7 -10 13 -25 13 -33z"/>
<path d="M912 7773 c-20 -8 -128 -157 -157 -217 -29 -59 -60 -179 -70 -272 -7
-60 4 -160 27 -254 15 -62 85 -209 111 -236 12 -12 27 -29 33 -36 19 -24 73
-11 80 18 3 13 18 30 32 36 14 7 26 21 28 31 4 27 10 30 33 17 24 -13 25 -23
5 -145 -8 -49 -20 -181 -26 -292 l-11 -201 -33 69 c-57 119 -198 291 -321 392
-71 57 -95 64 -106 29 -3 -9 -18 -44 -32 -77 -21 -49 -27 -81 -32 -170 -9
-199 43 -372 162 -530 59 -78 182 -188 202 -180 7 2 13 -2 13 -9 0 -8 10 -16
23 -20 35 -9 38 -7 27 14 -8 15 -8 20 1 20 6 0 9 7 5 15 -3 8 -1 15 5 15 6 0
9 6 6 14 -3 8 1 20 9 27 8 7 13 18 10 25 -2 7 4 20 15 30 18 16 19 16 19 -4 0
-11 5 -22 10 -24 6 -2 22 -75 36 -163 14 -88 29 -178 34 -200 4 -22 13 -65 19
-95 6 -30 13 -66 16 -80 l6 -25 -18 25 c-100 136 -307 291 -468 348 -79 29
-87 19 -79 -98 10 -155 38 -277 86 -375 59 -120 198 -282 312 -365 90 -65 196
-101 196 -65 0 8 7 15 15 15 8 0 15 7 15 16 0 8 -5 12 -10 9 -6 -3 -10 1 -10
10 0 8 7 18 15 21 8 4 12 10 9 16 -3 5 -13 7 -22 3 -15 -5 -15 -4 0 12 11 12
15 31 12 56 -5 58 14 41 45 -38 15 -39 42 -101 60 -140 18 -38 36 -79 41 -90
21 -48 110 -228 118 -238 16 -22 63 -107 58 -107 -2 0 -24 16 -48 36 -150 126
-434 270 -545 277 l-38 2 2 -57 c3 -78 38 -205 84 -306 22 -46 39 -86 39 -89
0 -12 114 -156 161 -204 68 -69 191 -156 289 -204 130 -64 300 -93 308 -52 2
11 -3 17 -15 18 -10 0 -13 3 -6 6 10 3 10 10 2 25 -8 16 -7 22 8 34 17 13 17
13 -1 14 -14 0 -17 5 -12 25 5 18 2 25 -9 25 -8 0 -15 -8 -15 -17 0 -13 -4
-12 -13 7 -8 14 -11 34 -7 45 4 11 6 31 4 45 l-4 25 19 -24 c10 -14 16 -31 13
-40 -4 -10 -1 -13 11 -8 12 5 39 -20 104 -96 87 -101 192 -213 308 -330 33
-33 51 -57 40 -53 -124 50 -270 84 -522 121 -58 9 -61 -5 -24 -101 39 -101 93
-183 175 -266 148 -148 305 -216 509 -220 93 -2 147 6 158 23 7 11 9 11 9 1 0
-7 5 -10 10 -7 6 3 10 15 10 26 0 12 4 17 11 13 8 -4 9 1 4 17 -10 32 -12 34
-29 20 -11 -9 -15 -7 -19 9 -3 12 1 23 10 29 13 7 13 9 -1 14 -9 4 -16 16 -16
27 0 18 34 -2 203 -116 111 -75 207 -141 212 -146 6 -5 -31 -8 -95 -8 -108 2
-274 -20 -370 -48 -30 -8 -84 -20 -119 -26 -36 -6 -66 -17 -68 -23 -13 -38
210 -201 337 -248 204 -75 333 -76 488 -3 48 22 61 33 53 42 -7 9 -7 16 1 24
13 13 19 35 21 72 1 14 6 28 12 32 6 5 4 8 -6 8 -8 0 -21 -6 -28 -13 -11 -10
-12 -7 -6 13 12 40 20 43 66 22 233 -102 329 -148 329 -154 0 -4 -10 -8 -23
-8 -30 0 -162 -51 -229 -89 -82 -46 -270 -200 -266 -219 4 -20 56 -37 168 -56
119 -21 181 -20 272 3 137 35 243 103 284 182 13 26 14 33 2 40 -11 7 -10 11
2 19 13 8 13 10 -1 10 -9 0 -23 8 -32 18 -36 39 -23 39 133 -8 52 -16 115 -32
140 -35 25 -4 65 -13 90 -20 67 -20 153 -27 183 -16 38 15 38 58 0 67 -290 66
-566 155 -793 255 -150 67 -383 189 -485 254 -27 17 -75 47 -105 65 -268 165
-676 542 -908 838 -45 58 -50 72 -27 72 8 0 15 -7 15 -15 0 -20 17 -19 29 3 6
9 11 12 11 5 0 -7 10 -17 21 -24 16 -8 20 -8 14 1 -6 9 -3 9 13 1 12 -6 25
-18 30 -27 17 -31 49 16 76 113 53 187 24 444 -67 602 -42 72 -209 261 -231
261 -16 0 -66 -111 -66 -145 0 -13 -4 -35 -9 -48 -5 -13 -14 -66 -21 -118 -9
-76 -8 -118 4 -214 8 -66 21 -136 29 -155 8 -19 18 -51 21 -70 l7 -35 -31 35
c-54 61 -116 161 -188 305 -120 239 -232 489 -232 517 0 8 -4 18 -9 24 -29 31
-141 454 -141 534 -1 19 -7 62 -15 95 -19 76 -30 287 -13 238 13 -38 32 -42
49 -11 8 14 14 18 17 10 6 -20 17 -15 94 49 92 76 165 160 213 241 20 35 41
70 46 78 50 82 83 225 83 362 1 144 -4 153 -72 118 -134 -70 -228 -143 -303
-236 -62 -78 -131 -205 -149 -277 -7 -26 -16 -47 -21 -47 -5 0 -9 31 -9 70 0
82 43 432 63 510 8 30 17 67 21 83 9 38 27 34 24 -5 -3 -30 -1 -33 27 -34 17
0 39 3 50 7 11 3 38 12 60 19 51 16 185 103 253 165 72 65 161 193 204 295 29
69 37 103 43 183 l7 97 -24 0 c-39 0 -206 -57 -267 -91 -74 -41 -180 -128
-224 -181 -47 -58 -127 -176 -136 -201 -5 -14 -11 15 -15 83 -12 171 -37 287
-97 450 -47 129 -61 162 -86 203 -23 37 -27 40 -51 30z m725 -3825 c-3 -8 -6
-5 -6 6 -1 11 2 17 5 13 3 -3 4 -12 1 -19z"/>
<path d="M8773 7748 c-68 -129 -138 -327 -159 -448 -7 -47 -17 -136 -20 -198
l-7 -112 -28 48 c-15 26 -34 54 -43 61 -9 7 -16 19 -16 25 0 19 -126 152 -191
202 -68 52 -183 108 -279 135 -100 29 -100 29 -100 -41 0 -216 150 -454 386
-610 41 -27 80 -50 85 -50 5 0 26 -11 47 -23 54 -34 96 -40 117 -17 9 10 14
24 10 29 -3 6 -2 11 2 11 11 0 34 -37 45 -74 6 -22 68 -574 68 -613 0 -2 -4
-3 -8 -3 -4 0 -16 26 -26 58 -29 93 -48 133 -99 211 -61 93 -140 176 -214 226
-32 21 -69 46 -83 55 -27 18 -121 52 -127 46 -2 -2 -8 -44 -13 -94 -9 -82 -7
-100 15 -184 54 -210 139 -356 286 -492 67 -62 153 -115 167 -102 3 3 11 1 18
-4 6 -6 18 -9 25 -8 17 4 17 -34 0 -157 -8 -49 -13 -97 -13 -105 1 -70 -54
-318 -103 -465 -68 -204 -266 -632 -383 -830 -50 -84 -133 -188 -143 -178 -5
5 -2 28 7 52 62 180 73 411 28 584 -18 70 -52 147 -65 147 -16 0 -91 -80 -154
-165 -128 -170 -181 -367 -157 -574 11 -98 33 -163 47 -141 4 7 17 9 31 6 26
-7 31 3 13 21 -6 6 -8 17 -4 23 6 9 10 8 17 -4 10 -18 48 -22 48 -6 0 6 -7 13
-15 16 -27 11 -16 31 16 32 27 1 30 -2 26 -21 -3 -12 1 -31 9 -41 8 -11 14
-14 14 -7 0 7 4 10 8 7 4 -2 14 -1 22 4 8 5 21 3 32 -3 19 -13 25 -37 8 -37
-5 0 -10 -5 -10 -11 0 -26 -194 -252 -365 -424 -191 -193 -439 -389 -670 -529
-60 -37 -118 -72 -127 -77 -10 -5 -26 -13 -35 -19 -363 -197 -594 -293 -903
-374 -213 -56 -294 -87 -298 -115 -2 -13 3 -24 13 -27 26 -10 208 15 299 41
45 12 95 25 111 28 17 3 61 13 99 21 38 9 71 14 74 11 3 -3 -5 -13 -16 -24
-12 -10 -22 -26 -22 -34 0 -10 -6 -14 -15 -11 -20 8 -19 1 4 -45 36 -70 102
-116 239 -165 58 -20 93 -26 166 -27 143 -1 342 44 334 76 -4 15 -156 140
-242 199 -66 45 -174 90 -240 101 -21 4 -35 10 -30 14 5 5 80 41 167 80 149
68 160 71 172 54 16 -22 10 -34 -12 -26 -13 5 -15 1 -10 -24 5 -28 4 -30 -16
-26 -20 4 -21 3 -4 -10 17 -14 23 -29 10 -24 -5 1 -9 -2 -11 -6 -6 -16 73 -60
158 -89 145 -49 311 -39 465 29 142 63 325 200 325 244 0 12 -17 19 -72 28
-40 7 -104 20 -143 31 -104 28 -261 44 -354 36 -45 -3 -81 -3 -81 2 0 5 23 24
52 43 82 54 90 59 243 163 80 54 148 96 151 93 11 -10 -7 -47 -23 -47 -12 0
-13 -8 -8 -39 6 -36 5 -39 -22 -46 -17 -4 -29 -2 -31 4 -6 17 -32 13 -32 -4 0
-11 12 -15 45 -15 25 0 45 -4 45 -10 0 -5 -7 -10 -15 -10 -8 0 -15 -5 -15 -11
0 -5 4 -8 9 -5 5 4 22 1 38 -5 33 -12 144 -15 223 -5 144 19 236 61 378 173
28 23 114 129 133 164 55 104 90 181 95 209 l7 33 -71 -6 c-39 -4 -92 -11
-119 -16 -26 -6 -79 -15 -118 -21 -69 -11 -198 -49 -242 -72 -48 -24 -31 3 47
79 45 43 152 157 238 253 87 95 165 182 175 192 9 10 17 20 17 23 0 8 52 55
60 55 4 0 10 -11 12 -25 4 -21 1 -25 -18 -25 -24 0 -32 -14 -15 -24 14 -9 -11
-54 -27 -48 -11 4 -13 -2 -7 -26 5 -23 2 -35 -12 -49 -11 -11 -17 -25 -15 -31
2 -7 -3 -12 -11 -12 -8 0 -17 -9 -20 -20 -4 -15 0 -20 14 -20 10 0 19 -4 19
-9 0 -5 -9 -7 -20 -4 -29 8 -25 -4 8 -21 38 -19 133 0 240 50 29 13 55 24 57
24 3 0 45 24 93 54 189 117 337 306 401 511 38 120 40 128 47 203 6 66 5 72
-12 72 -49 -1 -120 -27 -252 -91 -153 -74 -215 -113 -301 -190 -30 -27 -56
-47 -58 -46 -2 2 22 51 53 110 63 122 219 453 254 542 13 33 41 88 62 123 21
34 38 67 38 72 0 8 31 30 44 30 2 0 5 -27 5 -60 0 -33 -4 -60 -10 -60 -5 0 -9
5 -9 12 0 9 -3 9 -12 0 -10 -10 -10 -17 0 -32 15 -25 15 -31 -2 -24 -9 3 -13
-4 -14 -23 0 -15 -1 -36 -1 -45 -1 -10 -1 -25 -1 -33 0 -34 -3 -51 -12 -62
-11 -14 -2 -33 14 -33 6 0 19 -7 29 -15 15 -15 22 -13 82 20 46 25 98 70 181
155 64 66 116 126 116 133 0 8 9 26 20 40 11 14 20 31 20 39 0 7 7 27 16 43
30 55 66 169 74 235 12 85 12 191 1 209 -13 21 -96 -5 -163 -51 -14 -10 -31
-18 -36 -18 -19 0 -176 -112 -231 -164 -29 -28 -71 -73 -92 -99 -22 -27 -39
-45 -39 -39 0 5 9 44 20 87 11 43 20 94 20 112 0 19 11 78 24 131 13 53 27
126 31 162 6 59 18 119 33 160 3 8 6 20 6 25 4 26 18 75 23 75 19 0 38 -59 23
-74 -3 -2 -3 -29 -2 -59 3 -48 7 -56 27 -61 17 -4 22 -11 18 -25 -3 -13 2 -20
21 -25 14 -3 26 -11 26 -17 0 -6 -9 -9 -19 -6 -14 3 -18 1 -14 -9 3 -8 8 -14
12 -14 18 0 79 47 137 106 213 214 285 515 187 788 -14 39 -29 75 -34 80 -13
14 -79 -35 -173 -129 -110 -111 -175 -198 -229 -307 l-44 -88 -7 158 c-7 150
-37 399 -51 422 -8 13 14 232 26 244 4 5 11 -8 14 -28 4 -20 11 -36 15 -36 5
0 6 -9 3 -20 -3 -11 -1 -20 5 -20 6 0 16 -22 23 -50 7 -27 17 -50 22 -50 5 0
4 -7 -3 -15 -17 -21 -1 -19 23 3 19 16 19 16 13 -5 -6 -19 -4 -23 16 -24 13 0
17 -3 10 -6 -15 -6 -6 -23 13 -23 9 0 12 6 9 15 -4 10 0 15 12 15 17 0 64 55
64 75 0 5 6 16 13 24 42 50 87 238 87 365 0 99 -25 211 -66 290 -59 114 -152
236 -181 236 -7 0 -20 -15 -30 -32z m-133 -1928 c0 -5 -4 -10 -10 -10 -5 0
-10 5 -10 10 0 6 5 10 10 10 6 0 10 -4 10 -10z m60 -900 c0 -5 -4 -10 -10 -10
-5 0 -10 5 -10 10 0 6 5 10 10 10 6 0 10 -4 10 -10z m-440 -790 c0 -5 -4 -10
-10 -10 -5 0 -10 5 -10 10 0 6 5 10 10 10 6 0 10 -4 10 -10z m-90 -80 c0 -5
-5 -10 -11 -10 -5 0 -7 5 -4 10 3 6 8 10 11 10 2 0 4 -4 4 -10z m-810 -896 c0
-8 -4 -12 -10 -9 -5 3 -10 10 -10 16 0 5 5 9 10 9 6 0 10 -7 10 -16z"/>
<path d="M8490 7660 c0 -5 5 -10 11 -10 5 0 7 5 4 10 -3 6 -8 10 -11 10 -2 0
-4 -4 -4 -10z"/>
<path d="M890 6720 c0 -5 5 -10 10 -10 6 0 10 5 10 10 0 6 -4 10 -10 10 -5 0
-10 -4 -10 -10z"/>
<path d="M2870 5875 l0 -725 524 0 523 0 7 103 c6 93 4 125 -10 195 l-4 22
-350 0 -350 0 0 130 0 130 325 0 325 0 0 155 0 155 -325 0 -325 0 0 120 0 120
339 0 c187 0 346 3 355 6 14 5 16 29 16 160 l0 154 -525 0 -525 0 0 -725z"/>
<path d="M4559 6573 c-7 -16 -15 -37 -19 -48 -4 -11 -12 -32 -19 -47 -6 -16
-15 -38 -20 -50 -4 -13 -13 -34 -19 -48 -6 -14 -21 -54 -33 -90 -12 -36 -28
-74 -35 -85 -8 -11 -14 -28 -14 -38 0 -10 -6 -31 -14 -45 -8 -15 -36 -85 -64
-157 -27 -71 -63 -166 -80 -210 -89 -233 -107 -279 -143 -375 -23 -58 -45
-113 -50 -122 -5 -10 -9 -38 -9 -63 l0 -45 163 0 162 1 29 82 c15 45 35 103
44 130 l16 47 332 0 332 0 7 -30 c4 -16 11 -32 16 -35 5 -4 9 -17 9 -30 0 -13
5 -27 10 -30 6 -3 10 -13 10 -22 0 -9 10 -38 22 -65 l22 -48 163 0 163 0 0 35
c0 34 -5 49 -41 132 -11 24 -19 47 -19 53 0 6 -4 18 -9 28 -12 23 -26 60 -41
102 -15 43 -24 66 -40 105 -14 33 -28 68 -41 103 -5 12 -13 32 -18 45 -5 12
-14 38 -21 57 -7 19 -17 46 -22 60 -6 14 -14 34 -18 45 -4 11 -12 32 -19 48
-21 50 -29 72 -41 107 -7 19 -21 54 -31 77 -11 24 -19 47 -19 53 0 6 -4 18 -9
28 -15 29 -29 65 -43 107 -7 22 -18 49 -25 60 -7 11 -13 28 -13 38 0 10 -6 31
-14 45 -23 43 -46 99 -46 111 0 8 -67 11 -220 11 l-220 0 -11 -27z m235 -309
c9 -3 16 -14 16 -23 0 -10 9 -36 20 -59 11 -22 20 -48 20 -56 0 -8 5 -18 10
-21 6 -3 10 -15 10 -26 0 -10 4 -27 9 -37 12 -23 26 -60 41 -102 7 -19 17 -46
22 -60 6 -14 14 -34 18 -45 4 -11 13 -32 20 -46 7 -15 9 -36 5 -48 -6 -20 -11
-21 -198 -21 -106 0 -198 4 -206 9 -11 7 -11 13 3 32 9 13 16 33 16 44 0 11 8
32 17 45 10 14 16 26 14 28 -3 3 -2 6 47 137 32 87 81 222 88 243 4 14 6 14
28 6z"/>
<path d="M5660 5875 l0 -725 171 0 171 0 -6 63 c-8 85 -11 365 -8 640 2 253 7
267 58 180 15 -27 43 -69 61 -95 18 -26 33 -50 33 -52 0 -2 31 -50 68 -107 38
-57 81 -124 96 -149 15 -25 54 -85 86 -135 33 -49 65 -99 70 -110 15 -28 29
-50 81 -130 25 -38 48 -78 52 -87 6 -16 24 -18 182 -18 l175 0 0 725 0 725
-171 0 -171 0 4 -435 c3 -337 1 -435 -8 -435 -7 0 -27 24 -44 53 -39 66 -38
64 -142 224 -49 73 -88 135 -88 137 0 3 -31 52 -70 110 -38 58 -70 110 -70
115 0 5 -7 15 -16 22 -9 7 -19 20 -23 29 -3 8 -31 52 -61 98 l-54 82 -188 0
-188 0 0 -725z"/>
<path d="M1519 5723 c-79 -82 -111 -126 -158 -220 -88 -176 -104 -309 -67
-548 6 -36 18 -65 27 -65 5 0 9 -8 9 -17 0 -15 2 -14 14 3 13 17 15 17 21 2 4
-9 13 -14 21 -11 10 4 12 0 7 -13 -4 -11 -3 -15 4 -11 6 4 13 -4 17 -17 6 -25
38 -44 44 -27 2 6 9 11 15 11 18 1 79 95 130 201 112 231 114 502 7 722 -12
26 -26 47 -29 47 -4 0 -32 -26 -62 -57z"/>
<path d="M8125 5736 c-55 -94 -83 -375 -52 -522 16 -73 79 -238 102 -264 7 -8
22 -34 34 -57 21 -41 52 -69 65 -56 11 11 6 23 -9 23 -8 0 -15 4 -15 9 0 6 8
9 18 9 9 0 24 1 32 4 8 3 12 3 8 1 -5 -3 -8 -9 -8 -14 0 -14 26 -11 40 5 6 8
17 13 24 10 8 -3 16 2 19 10 5 13 5 23 -3 61 -7 32 0 37 26 20 14 -9 28 -15
30 -12 3 3 10 49 15 103 15 140 1 265 -38 354 -23 54 -64 134 -75 148 -6 7
-18 26 -27 42 -25 46 -132 170 -147 170 -7 0 -25 -20 -39 -44z m200 -826 c3
-5 -1 -10 -10 -10 -9 0 -13 5 -10 10 3 6 8 10 10 10 2 0 7 -4 10 -10z"/>
<path d="M8655 4780 c-4 -6 3 -10 14 -10 25 0 27 6 6 13 -8 4 -17 2 -20 -3z"/>
<path d="M2309 4053 c-16 -42 -29 -120 -29 -172 0 -68 37 -258 59 -305 11 -23
26 -58 34 -78 36 -88 218 -288 251 -275 7 3 17 -3 24 -13 12 -20 79 -32 86
-15 2 5 5 3 5 -6 1 -14 7 -15 44 -6 23 6 43 12 45 12 1 1 6 34 11 73 13 105
-9 249 -56 355 -66 151 -209 297 -421 431 l-42 26 -11 -27z"/>
<path d="M7340 4042 c-277 -189 -386 -321 -434 -528 -9 -38 -21 -86 -27 -107
-14 -51 6 -190 34 -240 21 -37 22 -38 37 -20 8 11 21 18 28 15 28 -9 104 22
158 65 133 102 234 250 279 403 24 84 28 113 29 245 1 129 -2 155 -17 178 -9
15 -21 27 -25 27 -4 0 -32 -17 -62 -38z"/>
<path d="M7811 3954 c0 -11 3 -14 6 -6 3 7 2 16 -1 19 -3 4 -6 -2 -5 -13z"/>
<path d="M7775 3950 c3 -5 8 -10 11 -10 2 0 4 5 4 10 0 6 -5 10 -11 10 -5 0
-7 -4 -4 -10z"/>
<path d="M4530 3889 c-63 -12 -95 -26 -172 -76 l-68 -43 0 -325 c0 -180 3
-324 8 -322 4 3 53 26 109 51 134 60 178 70 256 55 75 -13 111 -31 159 -76
l36 -35 44 40 c60 55 130 76 224 68 81 -6 174 -35 216 -66 15 -11 41 -23 58
-26 l30 -6 0 319 0 319 -57 40 c-156 110 -352 119 -476 22 l-37 -29 -41 31
c-79 63 -172 82 -289 59z m205 -165 c64 -29 75 -42 75 -90 l0 -43 -43 19 c-23
10 -65 24 -92 31 -85 20 -97 17 -283 -58 -10 -4 -12 6 -10 43 3 47 5 50 48 73
25 13 61 30 80 38 47 18 172 11 225 -13z m517 -7 c80 -33 88 -42 88 -97 l0
-48 -82 36 c-120 52 -201 49 -339 -12 -12 -5 -15 1 -14 35 2 79 85 122 220
114 43 -2 92 -13 127 -28z m-558 -239 c22 -7 58 -22 79 -35 34 -21 37 -27 37
-68 l0 -44 -57 27 c-50 23 -70 26 -143 25 -70 -1 -98 -6 -157 -31 l-73 -30 0
44 c0 39 3 46 28 56 15 7 38 19 52 29 54 36 161 48 234 27z m572 -28 l69 -35
3 -54 3 -54 -33 20 c-52 30 -126 53 -199 59 -63 6 -72 5 -137 -28 l-69 -35 0
44 c0 40 4 48 41 78 51 41 62 44 167 42 77 -2 94 -6 155 -37z"/>
<path d="M1715 3760 c3 -5 10 -10 16 -10 5 0 9 5 9 10 0 6 -7 10 -16 10 -8 0
-12 -4 -9 -10z"/>
<path d="M2997 3523 c-25 -66 -28 -98 -17 -204 12 -122 34 -185 104 -291 55
-86 174 -191 280 -247 33 -17 64 -35 70 -40 19 -15 115 -43 126 -36 5 3 10 -1
10 -10 0 -12 6 -15 20 -10 12 4 28 1 36 -6 9 -7 31 -12 50 -11 19 2 34 -1 34
-7 0 -5 11 -11 25 -13 17 -4 25 -1 25 8 0 8 4 14 9 14 17 0 21 96 7 176 -33
187 -146 361 -312 479 -59 43 -422 235 -443 235 -5 0 -16 -17 -24 -37z"/>
<path d="M6670 3553 c-8 -3 -22 -11 -30 -18 -8 -7 -80 -47 -160 -87 -197 -101
-230 -124 -332 -229 -134 -137 -190 -263 -204 -458 -5 -79 -1 -95 32 -109 34
-16 44 -15 44 4 0 11 6 13 19 9 13 -4 23 0 29 11 7 13 13 14 30 5 28 -15 27
-15 51 22 15 24 21 27 21 13 0 -25 32 -17 130 32 212 105 347 239 408 402 21
55 42 180 42 243 0 33 -7 83 -16 113 -15 54 -25 61 -64 47z"/>
<path d="M5370 2903 c-69 -59 -160 -141 -203 -183 l-78 -75 -6 -82 -6 -81
-102 -102 c-78 -78 -106 -100 -118 -94 -9 5 -61 51 -117 103 l-102 95 6 73
c12 127 -25 201 -145 297 -105 83 -169 111 -252 110 -57 -2 -73 -6 -94 -25
-30 -28 -53 -78 -53 -114 0 -82 91 -238 192 -330 71 -63 127 -81 228 -69 70 8
68 9 201 -138 l70 -77 -33 -34 c-18 -18 -146 -140 -285 -271 -255 -240 -275
-264 -258 -315 3 -10 19 -24 34 -31 37 -15 71 1 126 61 101 110 337 362 407
434 l78 80 98 -101 c53 -55 178 -186 277 -292 160 -171 183 -192 211 -192 18
0 42 8 55 19 21 17 22 21 11 58 -10 33 -46 73 -195 214 -100 95 -228 217 -285
271 l-102 98 101 110 c100 109 101 110 146 110 87 0 122 18 208 105 109 110
278 312 273 327 -2 6 -69 -49 -148 -124 -80 -75 -148 -134 -152 -132 -15 10
16 50 134 172 65 67 118 128 118 134 0 10 -31 -12 -70 -52 -161 -160 -221
-213 -232 -202 -9 9 11 35 83 109 165 172 187 197 159 183 -14 -7 -80 -66
-148 -131 -81 -79 -127 -116 -137 -113 -12 5 -7 15 22 48 20 22 39 43 42 46 4
3 46 46 94 97 79 83 100 113 79 113 -4 0 -63 -48 -132 -107z"/>
<path d="M3104 2585 c3 -8 0 -15 -6 -15 -6 0 -9 -2 -6 -5 3 -3 12 -3 20 0 19
7 19 35 0 35 -8 0 -12 -6 -8 -15z"/>
<path d="M4617 1647 c-6 -16 3 -37 84 -197 112 -222 147 -285 155 -284 14 3
77 109 149 254 88 175 97 198 90 221 -6 18 -18 19 -240 19 -185 0 -234 -3
-238 -13z m333 -102 c0 -10 -85 -175 -90 -175 -6 0 -90 161 -90 173 0 4 41 7
90 7 50 0 90 -2 90 -5z"/>
<path d="M4080 1132 l-65 -17 -3 -57 c-3 -67 10 -76 27 -18 14 48 45 64 102
55 43 -7 54 -26 64 -107 6 -50 4 -63 -23 -119 -28 -59 -106 -148 -182 -208
-14 -10 -22 -22 -19 -25 10 -11 303 -8 331 3 21 8 28 19 33 48 4 21 9 50 11
66 7 35 -7 35 -28 -2 -14 -26 -23 -30 -80 -36 -34 -4 -79 -5 -98 -3 l-35 3 36
23 c49 30 149 146 165 190 40 112 -12 191 -141 215 -16 3 -59 -2 -95 -11z"/>
<path d="M5450 1132 l-65 -17 -3 -47 c-4 -56 7 -61 28 -15 21 45 74 58 121 31
29 -17 34 -26 37 -62 4 -51 -14 -79 -65 -101 l-37 -17 39 -16 c53 -21 76 -48
82 -99 10 -72 -37 -129 -108 -129 -34 0 -90 41 -96 71 -3 16 -10 26 -15 23
-13 -8 -5 -101 9 -115 6 -6 45 -13 87 -16 80 -6 126 6 188 51 29 20 58 81 58
120 0 41 -29 83 -74 107 l-45 23 37 21 c54 30 69 62 53 115 -10 35 -19 45 -57
62 -64 28 -100 30 -174 10z"/>
<path d="M4522 1110 c-24 -17 -53 -52 -69 -82 -24 -46 -28 -64 -28 -143 0
-110 20 -169 75 -219 31 -28 50 -36 97 -42 51 -6 63 -4 103 18 85 47 127 148
116 274 -4 41 -13 88 -21 106 -44 107 -185 152 -273 88z m141 -47 c37 -60 46
-122 36 -240 -5 -58 -13 -113 -19 -122 -30 -58 -81 -50 -112 18 -27 57 -38
239 -18 305 25 85 74 102 113 39z"/>
<path d="M5032 1127 c-43 -13 -98 -76 -114 -129 -7 -24 -13 -86 -13 -138 0
-86 2 -99 27 -136 42 -66 80 -92 145 -100 51 -6 63 -4 103 18 86 47 127 148
116 277 -4 42 -11 80 -17 85 -5 6 -9 17 -9 26 0 9 -17 33 -39 54 -53 52 -124
67 -199 43z m105 -49 c30 -35 43 -95 43 -202 0 -157 -27 -225 -83 -211 -43 11
-70 90 -75 217 -4 107 7 166 40 206 16 19 53 14 75 -10z"/>
</g>
</svg>
